{
  "project_info": {
    "project_number": "811578357880",
    "firebase_url": "https://notesapp-1fcde.firebaseio.com",
    "project_id": "notesapp-1fcde",
    "storage_bucket": "notesapp-1fcde.appspot.com"
  },
  "client": [
    {
      "client_info": {
        "mobilesdk_app_id": "1:811578357880:android:d4802db39b8c77b105d58d",
        "android_client_info": {
          "package_name": "com.example.notesapp"
        }
      },
      "oauth_client": [
        {
          "client_id": "811578357880-ocdnhpps27bclnlfv2edauk3tnfmj4tq.apps.googleusercontent.com",
          "client_type": 1,
          "android_info": {
            "package_name": "com.example.notesapp",
            "certificate_hash": "c09f337b4fcdbf7808823cac8e74b6b1a4407998"
          }
        },
        {
          "client_id": "811578357880-isi99081a32l9r749j51ugrocnja4ess.apps.googleusercontent.com",
          "client_type": 3
        }
      ],
      "api_key": [
        {
          "current_key": "AIzaSyDj1135qfpCrLmwlvhhaE9FYhmyBzs-0OU"
        }
      ],
      "services": {
        "appinvite_service": {
          "other_platform_oauth_client": [
            {
              "client_id": "811578357880-isi99081a32l9r749j51ugrocnja4ess.apps.googleusercontent.com",
              "client_type": 3
            }
          ]
        }
      }
    }
  ],
  "configuration_version": "1"
}